{
    "KPlugin": {
        "BugReportUrl": "https://bugs.kde.org/enter_bug.cgi?product=systemsettings&component=kcm_keys",
        "Description": "Configure Keyboard Shortcuts",
        "Description[ar]": "يضبط اختصارات لوحة المفاتيح",
        "Description[az]": "Klaviatura qısayollarını tənzimləyin",
        "Description[be]": "Наладжванне спалучэнняў клавіш",
        "Description[bg]": "Конфигуриране на клавишни комбинации",
        "Description[ca@valencia]": "Configura les dreceres de teclat",
        "Description[ca]": "Configura les dreceres de teclat",
        "Description[cs]": "Nastavit klávesové zkratky",
        "Description[da]": "Indstil tastaturgenveje",
        "Description[de]": "Tastatur-Kurzbefehle einrichten",
        "Description[el]": "Διαμόρφωση συντομεύσεων πληκτρολογίου",
        "Description[en_GB]": "Configure Keyboard Shortcuts",
        "Description[eo]": "Agordi Klavkombinojn",
        "Description[es]": "Configurar los atajos de teclado",
        "Description[et]": "Kiirklahvide seadistamine",
        "Description[eu]": "Konfiguratu teklatuko lasterbideak",
        "Description[fi]": "Pikanäppäinasetukset",
        "Description[fr]": "Configurer les raccourcis de clavier",
        "Description[gl]": "Configurar os atallos de teclado.",
        "Description[he]": "הגדרת קיצורי מקשים",
        "Description[hu]": "Globális billentyűparancsok beállítása",
        "Description[ia]": "Configura Vias breve de claviero ",
        "Description[id]": "Konfigurasi Pintasan Keyboard",
        "Description[ie]": "Configurar li rapid-tastes",
        "Description[is]": "Grunnstilla flýtilykla",
        "Description[it]": "Configura le scorciatoie della tastiera",
        "Description[ja]": "キーボードショートカットを設定",
        "Description[ka]": "მალსახმობების გამართვა",
        "Description[ko]": "키보드 단축키 설정",
        "Description[lt]": "Konfigūruoti sparčiuosius klavišus",
        "Description[lv]": "Pārvaldīt tastatūras īsceļus",
        "Description[nl]": "Sneltoetsen configureren",
        "Description[nn]": "Set opp snøggtastar",
        "Description[pa]": "ਕੀ-ਬੋਰਡ ਸ਼ਾਰਟਕੱਟ ਦੀ ਸੰਰਚਨਾ",
        "Description[pl]": "Ustawienia skrótów klawiszowych",
        "Description[pt]": "Configurar os Atalhos do Teclado",
        "Description[pt_BR]": "Configurar atalhos do teclado",
        "Description[ro]": "Configurează scurtăturile de tastatură",
        "Description[ru]": "Настройка комбинаций клавиш",
        "Description[sk]": "Nastaviť klávesové skratky",
        "Description[sl]": "Nastavi tipkovne bližnjice",
        "Description[sv]": "Anpassa snabbtangenter",
        "Description[ta]": "விசை சுருக்குவழிகளை அமையுங்கள்",
        "Description[tr]": "Klavye Kısayollarını Yapılandır",
        "Description[uk]": "Налаштовування клавіатурних скорочень",
        "Description[vi]": "Cấu hình phím tắt",
        "Description[x-test]": "xxConfigure Keyboard Shortcutsxx",
        "Description[zh_CN]": "配置键盘快捷键",
        "Description[zh_TW]": "設定鍵盤快捷鍵",
        "Icon": "preferences-desktop-keyboard-shortcut",
        "Name": "Shortcuts",
        "Name[ar]": "الاختصارات",
        "Name[ast]": "Atayos",
        "Name[az]": "Qısayollar",
        "Name[be]": "Спалучэнні клавіш",
        "Name[bg]": "Клавишни комбинации",
        "Name[ca@valencia]": "Dreceres",
        "Name[ca]": "Dreceres",
        "Name[cs]": "Zkratky",
        "Name[da]": "Genveje",
        "Name[de]": "Kurzbefehle",
        "Name[el]": "Συντομεύσεις",
        "Name[en_GB]": "Shortcuts",
        "Name[eo]": "Klavkombinoj",
        "Name[es]": "Atajos de teclado",
        "Name[et]": "Kiirklahvid",
        "Name[eu]": "Lasterbideak",
        "Name[fi]": "Pikanäppäimet",
        "Name[fr]": "Raccourcis",
        "Name[gl]": "Atallos",
        "Name[he]": "קיצורי מקשים",
        "Name[hu]": "Gyorsbillentyűk",
        "Name[ia]": "Vias Breve",
        "Name[id]": "Pintasan",
        "Name[ie]": "Rapid-tastes",
        "Name[is]": "Flýtilyklar",
        "Name[it]": "Scorciatoie",
        "Name[ja]": "ショートカット",
        "Name[ka]": "მალსახმობები",
        "Name[ko]": "단축키",
        "Name[lt]": "Spartieji klavišai",
        "Name[lv]": "Saīsnes",
        "Name[nl]": "Sneltoetsen",
        "Name[nn]": "Snar­vegar",
        "Name[pa]": "ਸ਼ਾਰਟਕੱਟ",
        "Name[pl]": "Skróty",
        "Name[pt]": "Atalhos",
        "Name[pt_BR]": "Atalhos",
        "Name[ro]": "Scurtături",
        "Name[ru]": "Комбинации клавиш",
        "Name[sk]": "Skratky",
        "Name[sl]": "Bližnjice",
        "Name[sv]": "Genvägar",
        "Name[ta]": "சுருக்குவழிகள்",
        "Name[tr]": "Kısayollar",
        "Name[uk]": "Скорочення",
        "Name[vi]": "Phím tắt",
        "Name[x-test]": "xxShortcutsxx",
        "Name[zh_CN]": "快捷键",
        "Name[zh_TW]": "捷徑"
    },
    "X-DocPath": "kcontrol/keys/index.html",
    "X-KDE-Keywords": "keys,global key bindings,key scheme,key bindings,shortcuts,application shortcuts,global shortcuts,keyboard,hotkeys,macro,keybind,keybinds,keybindings",
    "X-KDE-Keywords[ar]": "المفاتيح,روابط المفاتيح العالمية,مخطط المفاتيح,روابط المفاتيح,الاختصارات,اختصارات التطبيقات,الاختصارات العالمية,لوحة المفاتيح,مفاتيح التشغيل السريع,الماكرو,رابط المفاتيح,روابط المفاتيح,روابط المفاتيح",
    "X-KDE-Keywords[bg]": "клавиши, глобални клавишни комбинации, клавишна схема, клавишни комбинации, преки пътища, преки пътища за приложения, глобални преки пътища, клавиатура, бързи клавиши, макрос, клавишна комбинация, клавишни комбинации, клавишни комбинации",
    "X-KDE-Keywords[ca@valencia]": "tecles,lligams globals de tecles,esquema de tecles,lligams de tecles,dreceres,dreceres d'aplicació,dreceres globals,teclat,macro,lligam de tecles,lligams de tecles",
    "X-KDE-Keywords[ca]": "tecles,lligams globals de tecles,esquema de tecles,lligams de tecles,dreceres,dreceres d'aplicació,dreceres globals,teclat,macro,lligam de tecles,lligams de tecles",
    "X-KDE-Keywords[en_GB]": "keys,global key bindings,key scheme,key bindings,shortcuts,application shortcuts,global shortcuts,keyboard,hotkeys,macro,keybind,keybinds,keybindings",
    "X-KDE-Keywords[es]": "teclas,asociaciones globales de teclas,esquema de teclas,asociaciones de teclas,accesos rápidos,accesos rápidos de aplicaciones,accesos rápidos globales,teclado,atajos de teclado,atajos,macro,asignar tecla,asignación de teclas,teclas asignadas",
    "X-KDE-Keywords[eu]": "teklak,tekla elkarketa orokorrak,tekla-antolaera,laster-teklak,lasterbideak,aplikazioen lasterbideak,lasterbide orokorrak,teklatua,laster-teklak,makroa,tekla-elkarketa,tekla-loturak,tekla-elkarketak",
    "X-KDE-Keywords[fr]": "touches, association globale des touches, thème de touches, association de touches, raccourci, raccourcis d'application, raccourcis globaux, clavier, touches de raccourci, macro, association, associations",
    "X-KDE-Keywords[gl]": "keys,teclas,global key bindings,asociación global de teclas,asociación de teclas globais,key scheme,esquema de teclas,key bindings,asociación de teclas,shortcuts,atallos,application shortcuts,atallos de aplicacións,global shortcuts,atallos globais,keyboard,teclado,hotkeys,teclas rápidas,macro,keybind,keybinds,keybindings",
    "X-KDE-Keywords[he]": "מקשים,צירופי מקשים כלליים,צירופי מקשים גלובליים,קיצורי מקשים,קיצורי מקלדת,קיצורי דרך,קיצורי יישומים,קיצורי דרך כלליים,קיצורי דרך גלובליים,מקלדת,מקשים חמים,מאקרו,איגודי מקשים,איגוד מקש",
    "X-KDE-Keywords[hu]": "billentyűk,globális gyorsbillentyűk,billentyűséma,gyorsbillentyűk,alkalmazás gyorsbillentyűk,globális gyorsbillentyűk,billentyűzet,gyorsbillentyűk,makró,billentyűparancs,billentyűparancsok",
    "X-KDE-Keywords[ia]": "keys,global key bindings,key scheme,key bindings,shortcuts,application shortcuts,global shortcuts,keyboard,hotkeys,macro,keybind,keybinds,keybindings",
    "X-KDE-Keywords[it]": "tasti,scorciatoie da tastiera globali,schema di tasti,scorciatoie,scorciatoie delle applicazioni,scorciatoie globali,tastiera,tasti di scelta rapida",
    "X-KDE-Keywords[ka]": "keys,global key bindings,key scheme,key bindings,shortcuts,application shortcuts,global shortcuts,keyboard,hotkeys,macro,keybind,keybinds,keybindings,ღილაკები,მალსახმობი ღილაკები,სქემის ღილაკები,გლობალური მალსახმობები,აპლიკაციის მალსახმობები,მაკრო",
    "X-KDE-Keywords[nl]": "toetsen,globale toetsbindingen,toetsenschema,toetsbindingen,sneltoetsen,sneltoetsen van toepassing,globale sneltoetsen,toetsenbord,hotkeys,macro,toetsbinding,toetsbindingen",
    "X-KDE-Keywords[pl]": "Klawisze,Globalne powiązania klawiszy,Motyw klawiszy,Powiązania klawiszy,skróty,skróty programów,globalne skróty,klawiatura,gorące klawisze,makro,skrót klawiszowy,skróty klawiszowe,skróty klawiszowe",
    "X-KDE-Keywords[ru]": "keys,global key bindings,key scheme,key bindings,shortcuts,application shortcuts,global shortcuts,keyboard,hotkeys,macro,macro,keybind,keybinds,keybindings,клавиши,глобальные привязки клавиш,схема,привязки клавиш,комбинации клавиш,комбинации клавиш в приложениях,глобальные привязки клавиш,клавиатура,макро",
    "X-KDE-Keywords[sl]": "tipke,globalne vezave tipk,shema tipk,vezave tipk,bližnjice,bližnjice do aplikacij,globalne bližnjice,tipkovnica,bližnjice,makro,vezava tipk, povezave tipk, povezave tipk",
    "X-KDE-Keywords[sv]": "tangenter,globala tangentbindingar,tangentschema,tangentbindingar,genvägar,programgenvägar,globala genvägar,tangentbord,kortkommandon,makro,bind tangenter,tangentbindningar",
    "X-KDE-Keywords[tr]": "tuşlar,genel tuş bağlamaları,tuş şeması,tuş bağlamaları,kısayollar,uygulama kısayolları,genel kısayollar,klavye,kısayol tuşları,makro,tuş bağlaması,tuş bağlamaları,tuş bağlamaları,düğmeler,genel düğme bağıntıları,düğme şeması,düğme bağıntıları,kısayollar,uygulama kısayolları,genel kısayollar,klavye,kısayol düğmeleri,makro,düğme bağıntısı,kestirme,kestirmeler",
    "X-KDE-Keywords[uk]": "keys,global key bindings,key scheme,key bindings,shortcuts,application shortcuts,global shortcuts,keyboard,hotkeys,keybind,keybinds,keybindings,macro,клавіатура,скорочення,клавіатурні скорочення,схема,загальні клавіатурні скорочення,клавіатурні скорочення програми,загальні скорочення,макроси,прив'язка,макрос",
    "X-KDE-Keywords[x-test]": "xxkeysxx,xxglobal key bindingsxx,xxkey schemexx,xxkey bindingsxx,xxshortcutsxx,xxapplication shortcutsxx,xxglobal shortcutsxx,xxkeyboardxx,xxhotkeysxx,xxmacroxx,xxkeybindxx,xxkeybindsxx,xxkeybindingsxx",
    "X-KDE-Keywords[zh_TW]": "按鍵,全域按鍵綁定,按鍵方案,按鍵綁定,快捷鍵,應用程式快捷鍵,全域快捷鍵,鍵盤,熱鍵",
    "X-KDE-System-Settings-Parent-Category": "keyboard",
    "X-KDE-Weight": 200
}
