{
    "KPlugin": {
        "BugReportUrl": "https://bugs.kde.org/enter_bug.cgi?product=systemsettings&component=kcm_keyboard",
        "Description": "Keyboard Hardware and Layout",
        "Description[ar]": "عتاد لوحة المفاتيح وتخطيطها",
        "Description[az]": "Klaviatura və Qatların ayarlanması",
        "Description[be]": "Клавіятура і раскладка",
        "Description[bg]": "Клавиатурни устройства и подредба",
        "Description[ca@valencia]": "Maquinari i disposició del teclat",
        "Description[ca]": "Maquinari i disposició del teclat",
        "Description[cs]": "Hardware a rozvržení klávesnice",
        "Description[da]": "Tastaturhardware- og layout",
        "Description[de]": "Tastatur-Hardware und -belegung",
        "Description[el]": "Υλικό και διάταξη πληκτρολογίου",
        "Description[en_GB]": "Keyboard Hardware and Layout",
        "Description[eo]": "Klavara Aparataro kaj Aranĝo",
        "Description[es]": "Hardware y distribución del teclado",
        "Description[et]": "Klaviatuuri riistvara ja paigutus",
        "Description[eu]": "Teklatu-hardwarea eta -antolaera",
        "Description[fi]": "Näppäimistön laitteisto ja järjestys",
        "Description[fr]": "Disposition et matériel du clavier",
        "Description[gl]": "Soporte físico e disposición do teclado.",
        "Description[he]": "חומרה ופריסת מקלדת",
        "Description[hu]": "Billentyűzetkiosztás",
        "Description[ia]": "Disposition e hardware de claviero",
        "Description[id]": "Tata Letak dan Perangkat Keras Keyboard",
        "Description[ie]": "Hardware e arangeament del tastatura",
        "Description[is]": "Lyklaborð og lyklaborðsskipan",
        "Description[it]": "Hardware e mappatura della tastiera",
        "Description[ja]": "キーボードハードウェアとレイアウト",
        "Description[ka]": "კლავიატურის აპარატურა და განლაგება",
        "Description[ko]": "키보드 하드웨어 및 레이아웃",
        "Description[lt]": "Klaviatūros aparatinė įranga ir išdėstymas",
        "Description[lv]": "Tastatūras aparatūra un izkārtojums",
        "Description[nl]": "Toetsenbordhardware en -indeling",
        "Description[nn]": "Tastatur og tasteoppsett",
        "Description[pa]": "ਕੀ-ਬੋਰਡ ਹਾਰਡਵੇਅਰ ਅਤੇ ਲੇਆਉਟ",
        "Description[pl]": "Klawiatura - sprzęt i układ",
        "Description[pt]": "'Hardware' e Disposição do Teclado",
        "Description[pt_BR]": "Layout e hardware do teclado",
        "Description[ro]": "Aranjament și echipament de tastatură",
        "Description[ru]": "Настройка клавиатуры и раскладок",
        "Description[sk]": "Hardvér a rozloženie klávesnice",
        "Description[sl]": "Tipkovnica in razporeditev tipk",
        "Description[sv]": "Tangentbordshårdvara och layout",
        "Description[ta]": "விசைப்பலகை வன்பொருள் மற்றும் தளவமைப்பு",
        "Description[tr]": "Klavye Donanımı ve Yerleşimi",
        "Description[uk]": "Клавіатура та розкладка",
        "Description[vi]": "Phần cứng và bố cục bàn phím",
        "Description[x-test]": "xxKeyboard Hardware and Layoutxx",
        "Description[zh_CN]": "键盘硬件和布局",
        "Description[zh_TW]": "鍵盤硬體與佈局",
        "Icon": "preferences-desktop-keyboard",
        "Name": "Keyboard",
        "Name[af]": "Sleutelbord",
        "Name[ar]": "لوحة المفاتيح",
        "Name[ast]": "Tecláu",
        "Name[az]": "Klaviatura",
        "Name[be@latin]": "Klavijatura",
        "Name[be]": "Клавіятура",
        "Name[bg]": "Клавиатура",
        "Name[bn]": "কীবোর্ড",
        "Name[bn_IN]": "কি-বোর্ড",
        "Name[br]": "Stokellaoueg",
        "Name[bs]": "Tastatura",
        "Name[ca@valencia]": "Teclat",
        "Name[ca]": "Teclat",
        "Name[cs]": "Klávesnice",
        "Name[csb]": "Klawiatura",
        "Name[cy]": "Bysellfwrdd",
        "Name[da]": "Tastatur",
        "Name[de]": "Tastatur",
        "Name[el]": "Πληκτρολόγιο",
        "Name[en_GB]": "Keyboard",
        "Name[eo]": "Klavaro",
        "Name[es]": "Teclado",
        "Name[et]": "Klaviatuur",
        "Name[eu]": "Teklatua",
        "Name[fa]": "صفحه کلید",
        "Name[fi]": "Näppäimistö",
        "Name[fr]": "Clavier",
        "Name[fy]": "Toetseboerd",
        "Name[ga]": "Méarchlár",
        "Name[gl]": "Teclado",
        "Name[gu]": "કીબોર્ડ",
        "Name[he]": "מקלדת",
        "Name[hi]": "कुंजीपट",
        "Name[hne]": "कुंजीपट",
        "Name[hr]": "Tipkovnica",
        "Name[hsb]": "Tastatura",
        "Name[hu]": "Billentyűzet",
        "Name[ia]": "Claviero",
        "Name[id]": "Keyboard",
        "Name[ie]": "Tastatura",
        "Name[is]": "Lyklaborð",
        "Name[it]": "Tastiera",
        "Name[ja]": "キーボード",
        "Name[ka]": "კლავიატურა",
        "Name[kk]": "Перенетақта",
        "Name[km]": "ក្ដារ​ចុច",
        "Name[kn]": "ಕೀಲಿಮಣೆ",
        "Name[ko]": "키보드",
        "Name[ku]": "Klavye",
        "Name[lt]": "Klaviatūra",
        "Name[lv]": "Tastatūra",
        "Name[mai]": "कुँजीपटल",
        "Name[mk]": "Тастатура",
        "Name[ml]": "കീബോര്‍ഡ്",
        "Name[mr]": "कळफलक",
        "Name[nb]": "Tastatur",
        "Name[nds]": "Tastatuur",
        "Name[ne]": "कुञ्जीपाटी",
        "Name[nl]": "Toetsenbord",
        "Name[nn]": "Tastatur",
        "Name[oc]": "Clavièr",
        "Name[or]": "କିବୋର୍ଡ଼",
        "Name[pa]": "ਕੀਬੋਰਡ",
        "Name[pl]": "Klawiatura",
        "Name[pt]": "Teclado",
        "Name[pt_BR]": "Teclado",
        "Name[ro]": "Tastatură",
        "Name[ru]": "Клавиатура",
        "Name[se]": "Boallobeavdi",
        "Name[si]": "යතුරුපුවරුව",
        "Name[sk]": "Klávesnica",
        "Name[sl]": "Tipkovnica",
        "Name[sr@ijekavian]": "Тастатура",
        "Name[sr@ijekavianlatin]": "Tastatura",
        "Name[sr@latin]": "Tastatura",
        "Name[sr]": "Тастатура",
        "Name[sv]": "Tangentbord",
        "Name[ta]": "விசைப்பலகை",
        "Name[te]": "కీబోర్డ్",
        "Name[tg]": "Клавиатура",
        "Name[th]": "แป้นพิมพ์",
        "Name[tr]": "Klavye",
        "Name[ug]": "ھەرپتاختا",
        "Name[uk]": "Клавіатура",
        "Name[uz@cyrillic]": "Тугматаг",
        "Name[uz]": "Tugmatag",
        "Name[vi]": "Bàn phím",
        "Name[wa]": "Taprece",
        "Name[x-test]": "xxKeyboardxx",
        "Name[xh]": "Ibhodi enezitshixo",
        "Name[zh_CN]": "键盘",
        "Name[zh_TW]": "鍵盤"
    },
    "OnlyShowIn": "KDE;",
    "X-DocPath": "kcontrol/keyboard/index.html",
    "X-KDE-Keywords": "keyboard,keyboard repeat,click volume,input devices,repeat,volume,numlock,numpad,number pad,keyboard type,keyboard model,keyboard layout,key layout,language,alternate keyboard,keyboard switching,ctrl key,caps lock,esperanto,circumflex,tilde,cedilla,diacritics,accents,function keys,kill x server,LED keyboard,compose key,hardware,type,typing,shift,meta,alt,alt gr,fn,space bar,spacebar,qwerty,qwertz,azerty,dvorak",
    "X-KDE-Keywords[ar]": "لوحة المفاتيح,تكرار لوحة المفاتيح,مستوى صوت النقر,أجهزة الإدخال,التكرار,مستوى الصوت,قفل الأرقام,لوحة الأرقام,لوحة الأرقام,نوع لوحة المفاتيح,طراز لوحة المفاتيح,تخطيط لوحة المفاتيح,تخطيط المفاتيح,اللغة,لوحة المفاتيح البديلة,تبديل لوحة المفاتيح,مفتاح ctrl,قفل الحروف الكبيرة,الإسبرانتو,مفتاح الإمالة,علامة التلدة,علامات التشكيل,علامات الترقيم,مفاتيح الوظائف,إيقاف تشغيل خادم x,لوحة مفاتيح LED,مفتاح الإنشاء,الأجهزة,النوع,الكتابة,shift,meta,alt,alt gr,fn,شريط المسافة,شريط المسافة,qwerty,qwertz,azerty,dvorak",
    "X-KDE-Keywords[az]": "keyboard,keyboard repeat,click volume,input devices,repeat,volume,numlock,numpad,number pad,keyboard type,keyboard model,keyboard layout,key layout,language,alternate keyboard,keyboard switching,ctrl key,caps lock,esperanto,circumflex,tilde,cedilla,diacritics,accents,function keys,kill x server,LED keyboard,compose key,hardware,type,typing,shift,meta,alt,alt gr,fn,space bar,spacebar,qwerty,qwertz,azerty,dvorakklaviatura,təkrarlanan düymə,səs düyməsi,daxiletmə cihazları,təkrar,səs səviyyəsi,nömrə paneli,klaviatura növü,klaviatura modeli,klaviatura qatı,düymə qatı,dil,əlavə klaviatura,klaviatura dəyişdirilməsi,ctrl düyməsi,böyük-kiçik hərf düyməsi,incəltmə işarəsi,dalğalı xətt,ləhcə,funksiya düymələri,x xidmətinin dayandırılması,LED klaviatura,əlavə işarə düyməsi,avadanlıq,yazı,boşluq",
    "X-KDE-Keywords[bg]": "клавиатура, повторение на клавиатурата, сила на звука на щракване, устройства за въвеждане, повторение, сила на звука, numlock, цифрова клавиатура, цифрова клавиатура, тип клавиатура, модел на клавиатура, клавиатурна подредба, клавиатурна подредба, език, алтернативна клавиатура, превключване на клавиатура, клавиш ctrl, caps lock, есперанто, циркумфлекс, тилда, седила, диакритични знаци, ударения, функционални клавиши, kill x server, LED клавиатура, клавиш за композиране, хардуер, тип, писане, shift, meta, alt, alt gr, fn, интервал, интервал, qwerty, qwertz, azerty ,дворак",
    "X-KDE-Keywords[ca@valencia]": "teclat,repetició de teclat,volum del clic,dispositius d'entrada,repetició,volum,bloqueig numèric,teclat numèric,tipus de teclat,model de teclat,disposició de teclat,disposició de tecles,idioma,teclat alternatiu, commutació de teclat,tecla ctrl,bloqueig de majúscules,esperanto,circumflex,accent,c trencada,diacrítics,accents,tecles de funció,matar servidor x, teclat LED,tecla de composició,maquinari,tecleig,majúscula,meta,alt,alt gr,fn,barra espaiadora,barra d'espai,qwerty,qwertz,azerty,dvorak",
    "X-KDE-Keywords[ca]": "teclat,repetició de teclat,volum del clic,dispositius d'entrada,repetició,volum,bloqueig numèric,teclat numèric,tipus de teclat,model de teclat,disposició de teclat,disposició de tecles,idioma,teclat alternatiu, commutació de teclat,tecla ctrl,bloqueig de majúscules,esperanto,circumflex,accent,c trencada,diacrítics,accents,tecles de funció,matar servidor x, teclat LED,tecla de composició,maquinari,tecleig,majúscula,meta,alt,alt gr,fn,barra espaiadora,barra d'espai,qwerty,qwertz,azerty,dvorak",
    "X-KDE-Keywords[en_GB]": "keyboard,keyboard repeat,click volume,input devices,repeat,volume,numlock,numpad,number pad,keyboard type,keyboard model,keyboard layout,key layout,language,alternate keyboard,keyboard switching,ctrl key,caps lock,esperanto,circumflex,tilde,cedilla,diacritics,accents,function keys,kill x server,LED keyboard,compose key,hardware,type,typing,shift,meta,alt,alt gr,fn,space bar,spacebar,qwerty,qwertz,azerty,dvorak",
    "X-KDE-Keywords[es]": "teclado,repetición del teclado,volumen del clic,dispositivos de entrada,repetición,volumen,bloqueo numérico,teclado numérico,tipo de teclado,modelo de teclado,disposición del teclado,disposición de las teclas,distribución del teclado,distribución de las teclas,idioma,teclado alternativo,cambio de teclado,tecla ctrl,bloqueo de mayúsculas,esperanto,circunflejo,tilde,cedilla,diacríticos,acentos,teclas de función,matar el servidor x,LED del teclado,tecla de composición,hardware,escribir,escritura,mayúsculas,meta,alt,alt gr,fn,barra espaciadora,tecla de espacio,qwerty,azerty,dvorak",
    "X-KDE-Keywords[eu]": "teklatua,teklatu errepikapena,klikaren bolumena,sarrerako gailuak errepikatzea,bolumena,zkblok,zkteklatua,teklatu mota,teklatu eredua,teklatu-antolaera,tekla antolaera,hizkuntza,ordezko teklatua,teklatu aldaketa,ktrl tekla,maius. giltz,esperantoa,zirkunflexua,azentu-marka,ze hautsia,diakritikoak,azentuak,funtzio teklak,x zerbitzaria akabatzea,LED teklatua,tekla konposatua,hardwarea,mota,tekleatzea,maius,meta,alt,alt gr,fn,zuriune barra,zuriune-barra,qwerty,qwertz,azerty,dvorak",
    "X-KDE-Keywords[fi]": "näppäimistö,näppäimistön toisto,näppäilyäänen voimakkuus,syöttölaitteet,toisto,numlock,numerolukko,numpad,numeronäppäimistö,näppäimistön tyyppi,näppäimistön malli,näppäimistöasettelu,näppäinasettelu,kieli,vaihtoehtoinen näppäimistö,näppäimistön vaihto,ctrl,caps lock,vaihtolukko,esperanto,sirkumfleksi,tilde,sedilja,tarke,tarkkeet,aksentti,aksentit,funktionäppäimet,tapa x-palvelin,LED-näppäimistö,compose-näppäin,laitteisto,tyyppi,kirjoitus,vaihto,shift,meta,alt,altgr,alt gr,fn,välilyönti,qwerty,qwertz,azerty,dvorak",
    "X-KDE-Keywords[fr]": "clavier, répétition du clavier, volume du clic, périphériques d'entrée, répétition, volume, verrouillage numérique, pavé numérique, type de clavier, modèle de clavier, disposition du clavier, disposition des touches, langue, clavier alternatif, changement de clavier, touche de contrôle, verrouillage des majuscules, espéranto, circonflexe, tilde, cédille, accents, touches de fonction, tuer le serveur X, clavier à LED, touche de composition, matériel, type, saisie, MAJ, META, ALT, ALT GR, FN, barre d'espace, qwerty, qwertz, azerty, dvorak",
    "X-KDE-Keywords[gl]": "keyboard,teclado,keyboard repeat,repetición,click volume,volume,input devices,dispositivos,repeat,repetir,volume,numlock,teclado numérico,numpad,number pad,keyboard type,tipo de teclado,keyboard model,modelo de teclado,keyboard layout,disposición de teclado,key layout,disposición de teclas,language,idioma,alternate keyboard,teclado alternativo,keyboard switching,cambio de teclado,ctrl key,tecla Ctrl,caps lock,Bloq Maiús,esperanto,circumflex,circunflexo,tilde,til,cedilla,diacritics,accents,acentos,tiles,function keys,teclas de función,kill x server,matar o servidor das X,LED keyboard,teclado LED,compose key,tecla de composición,hardware,soporte físico,type,teclear,typing,tipografía,mecanografía,shift,Maiús,meta,alt,alt gr,fn,space bar,espazador,barra espazadora,barra espaciadora,spacebar,qwerty,qwertz,azerty,dvorak",
    "X-KDE-Keywords[he]": "מקלדת,החזרת מקשים,החזרת מקלדת,עוצמת שמע ללחיצה,התקני קלט,חזרה,עוצמת שמע, נאמלוק,numlock,לוח מספרים,סוג מקלדת,דגם מקלדת,פריסת מקלדת,פריסת מקשים,שפה,מקלדת חלופית,החלפת מקלדת,מקש ctrl,caps lock,אספרנטו,גג,כובע,דיאקריטי,מקשי פונקציות,הטעמות,חיסול שרת x,נורית מקלדת,לד,מקש compose,חומרה,סוג,הקלדה,שיפט, מטא,וינדוס,חלונות,אלט,אלט גר,fn,פונקציות,מקש רווח,רווח,קראטון,דבוז׳אק,דבוז'אק, דבורק,דבוראק,אזרטי,qwertz,qwerty",
    "X-KDE-Keywords[hu]": "billentyűzet,billentyűzet ismétlés,kattintási hangerő,beviteli eszközök,ismétlés,hangerő,numlock,számbillentyűzet,számbillentyűzet,billentyűzet típus,billentyűzet modell,billentyűzetkiosztás,billentyűkiosztás,nyelv,billentyűzet váltás,billentyűzetváltás,ctrl billentyű,caps lock,eszperantó,tilde,cedilla,mellékjelek,vonások,funkcióbillentyák,x kiszolgáló kilövése,LED billentyűzet,összeállító billentyű,hardver,gépel,gépelés,shift,meta,alt,alt gr,fn,szóköz,szóköz,qwerty,qwertz,azerty,dvorak",
    "X-KDE-Keywords[ia]": "claviero,repetition de claviero,volumine de click,dispositivos de entrata,repetition,,volumine, numlock,pad numeric,typo de claviero,modello de claviero,disposition de claviero, disposition de clave, linguage,claviero alternate,commutation de claviero,clave ctrl,caps lock,esperanto, circumflexe,tilde,cedilla,diacritics,accentos, claves de function,occide X server,claviero LED, clave composite,hardware,typa,typar, shift,meta,alt,alt gr,n,barra de spatio,barradespatio,qwerty,qwertz,azerty,dvorak",
    "X-KDE-Keywords[it]": "tastiera,ripetizione tastiera,clic volume,dispositivi di ingresso,ripetizione,volume,bloc num,tastierino numerico,tipo tastiera, modello tastiera,mappatura tastiera,mappatura tasto,lingua,tastiera alternativa,cambio tastiera, tasto ctrl,maiusc,esperanto,circonflesso,uccidi server x,led tastiera,tasto composizione,hardware,digitare,digitazione,maiusc,meta,alt,alt gr,fn,barra spaziatrice,barra,qwerty,qwertz,azerty,dvorak",
    "X-KDE-Keywords[ka]": "keyboard,keyboard repeat,click volume,input devices,repeat,volume,numlock,numpad,number pad,keyboard type,keyboard model,keyboard layout,key layout,language,alternate keyboard,keyboard switching,ctrl key,caps lock,esperanto,circumflex,tilde,cedilla,diacritics,accents,function keys,kill x server,LED keyboard,compose key,hardware,type,typing,shift,meta,alt,alt gr,fn,space bar,spacebar,qwerty,qwertz,azerty,dvorak,კლავიატურა,დაწკაპუნების ხმა,შეყვანის მოწყობილობები,გამეორება",
    "X-KDE-Keywords[ko]": "keyboard,keyboard repeat,click volume,input devices,repeat,volume,numlock,numpad,number pad,keyboard type,keyboard model,keyboard layout,key layout,language,alternate keyboard,keyboard switching,ctrl key,caps lock,esperanto,circumflex,tilde,cedilla,diacritics,accents,function keys,kill x server,LED keyboard,compose key,hardware,type,typing,shift,meta,alt,alt gr,fn,space bar,spacebar,qwerty,qwertz,azerty,dvorak,키보드,키보드 반복,클릭 음량,입력 장치,반복,음량,숫자패드,숫자 패드,키보드 종류,키보드 형식,키보드 모델,키보드 레이아웃,언어,대체 키보드,키보드 전환,ctrl 키,기능 키,x 서버 다시 시작,LED 키보드,하드웨어,입력,스페이스,스페이스 바,드보락",
    "X-KDE-Keywords[nl]": "toetsenbord,toetsenbordherhaling,klikvolume,invoerapparaten,herhaling,volume,numLock,numeriek pad,type toetsenbord,toetsenbordmodel,toetsenbordindeling,toetsenindeling,taal,toetsenbord alterneren,toetsenbord omschakelen,ctrl-toets,caps lock,esperanto,circumflex,dakje,kill x server,LED-toetsenbord,compositietoets,hardware,type,typing,shift,meta,alt,alt gr,fn,spatiebalk,qwerty,qwertz,azerty,dvorak",
    "X-KDE-Keywords[pl]": "klawiatura,powtarzanie klawiatury,głośność kliknięcia,urządzenia obsługi,powtórz,głośność,numlock,klawiatura numeryczna,klawiatura numeryczna,rodzaj klawiatury,model klawiatury,układ klawiatury,układ klawiszy,język,zamienna klawiatura,przełącznik klawiatury,klawisz ctrl,caps lock,esperanto,circumflex,tylda,cedilla,diakrytyki,akcenty,klawisze funkcyjne,zabij serwer x,klawiatura LED,klawisz kompozycji,sprzęt,wpisz,wpisywanie,shift,meta,alt,alt gr,fn,spacja,spacja,qwerty,qwertz,azerty,dvorak",
    "X-KDE-Keywords[pt_BR]": "teclado,repetição do teclado,volume do clique,dispositivos de entrada,repetição,volume,numlock,teclado numérico,tipo de teclado,modelo de teclado,layout do teclado,layout das teclas,idioma,teclado alternativo,mudança de teclado,tecla ctrl,caps lock,esperanto,circunflexo,til,cedilha,diácritos,acentos,teclas de função,finalizar o servidor X,LED do teclado,tecla compose,hardware,tipo,digitação,shift,meta,alt,alt gr,fn,barra de espaço,qwerty,qwertz,azerty,dvorak",
    "X-KDE-Keywords[ru]": "keyboard,keyboard repeat,click volume,input devices,repeat,volume,numlock,numpad,number pad,keyboard type,keyboard model,keyboard layout,key layout,language,alternate keyboard,keyboard switching,ctrl key,caps lock,esperanto,circumflex,tilde,cedilla,diacritics,accents,function keys,kill x server,LED keyboard,compose key,hardware,type,typing,shift,meta,alt,alt gr,fn,space bar,spacebar,qwerty,qwertz,azerty,dvorak,клавиатура,повтор клавиши,громкость щелчка,громкость клика,устройство ввода,повтор,громкость,цифровая клавиатура,тип клавиатуры,модель клавиатуры,раскладка клавиатуры,расположение клавиш,язык,альтернативная клавиатура,переключение клавиатуры,тильда,седиль,диакритические знаки,акценты,функциональные клавиши,оборудование,ввод,печать,пробел",
    "X-KDE-Keywords[sk]": "Klávesnica,opakovanie klávesnice,hlasitosť kliknutia,vstupné zariadenia,opakovanie, halsitosť,NumLock, NumPad,typ klávesnice,model klávesnice,rozloženie klávesnice,rozloženie kláves,jazyk, alternatívna klávesnica,prepínanie klávesnice,Ctrl,Caps Lock,Esperanto, Circumflex,zabiť X server,LED klávesnica,zložená klávesa,hardvér,typ,písanie,shift,meta,alt,alt gr,medzera,qwerty,qwertz,dvorak",
    "X-KDE-Keywords[sl]": "tipkovnica,ponavljanje tipke,tipkovno ponavljanje,glasnost klika,vhodne naprave,ponavljanje,glasnost,numlock,številčnica,vrsta tipkovnice,model tipkovnice,razporeditev tipk,razporeditev tipkovnice,jezik,nadomestna tipkovnica,alternativna tipkovnica,preklapljanje tipkovnice,ctrl,tipka ctrl,capslock,esperanto,cirkumfleks,tilda,cedilla,diakritični znaki,ostrivec,končaj strežnik x,led tipkovnica,strojna oprema,lučke,tipka za sestavljanje,preslednica,qwerty,qwertz,azerty,dvorak",
    "X-KDE-Keywords[sv]": "tangentbord,tangentbordsupprepning,klickvolym,indataenheter,upprepa,volym,numlock,numeriskt tangentbord,tangentbordstyp,tangentbordsmodell,tangentbordslayout,språk,alternativt tangentbord,tangentbordsbyte,ctrl-tangent,caps lock,esperanto,circumflex,tilde,cedilj,diakritisk,accenttecken,funktionstangenter,döda X-server,LED-tangentbord,compose-tangent,maskinvara,skriva,skift,meta,alt,alt gr,fn,mellanslag,qwerty,qwertz,azerty,dvorak",
    "X-KDE-Keywords[ta]": "keyboard, keyboard repeat, click volume, input devices, repeat,volume, numlock,numpad, keyboard type, keyboard model, keyboard layout, key layout, language,alternate keyboard, keyboard switching, ctrl key, caps lock, esperanto,circumflex, tilde,cedilla,diacritics,accents,function keys, kill x server, LED keyboard, compose key, ,hardware,type,typing,shift,meta,alt,alt gr,fn,space bar, spacebar,qwerty,qwertz,azerty,dvorak,  விசைப்பலகை, தட்டச்சு, தட்டு,மொழி, விசை, விசை தளவமைப்பு",
    "X-KDE-Keywords[tr]": "klavye,klavye tekrarı,klavye yinelemesi,tıklama sesi,giriş aygıtları,girdi aygıtları,yineleme,tekrar,ses,numlock,sayı kilidi,sayı düğmeleri,numpad,sayısal tuş takımı,klavye türü,klavye modeli,klavye düzeni,klavye yerleşimi,klavye dizilimi,düğme yerleşimi,düğme düzeni,düğme dizilimi,tuş düzeni,dil,alternatif klavye,klavye değiştirme,ctrl,kontrol,büyük harf,caps lock,esperanto,düzeltme işareti,tilda,sedilla,diyakritik işaretler,aksanlar,işlev düğmeleri,işlev tuşları,x sunucusunu öldür,LED klavye,oluşturma tuşu,donanım,tür,yazma,shift,üst karakter,meta,seçenek,alt,üst seçenek,alt gr,fn,boşluk çubuğu,boşluk çubuğu,qwerty,qwertz,azerty,dvorak,fgğıod,türkçe,türki,türkiye",
    "X-KDE-Keywords[uk]": "keyboard,keyboard repeat,click volume,input devices,repeat,volume,numlock,numpad,number pad,keyboard type,keyboard model,keyboard layout,key layout,language,alternate keyboard,keyboard switching,ctrl key,caps lock,esperanto,circumflex,tilde,cedilla,diacritics,accents,function keys,kill x server,LED keyboard,compose key,hardware,type,typing,shift,meta,alt,alt gr,fn,space bar,spacebar,qwerty,qwertz,azerty,dvorak,клавіатура,повторення натискань,гучність клацання,пристрої введення,повторення,гучність,тип клавіатури,розкладка клавіатури,мова,інша клавіатура,інша розкладка,перемикання розкладок,клавіша Ctrl,есперанто,циркумфлекс,тильда,акценти,функціональні клавіші,лампочки на клавіатурі,клавіша перемикання,обладнання,друк,набирання,шифт,мета,альт,правий альт,фн,пробіл,пропуск,йцукен,дворак",
    "X-KDE-Keywords[vi]": "keyboard,keyboard repeat,click volume,input devices,repeat,volume,numlock,numpad,number pad,keyboard type,keyboard model,keyboard layout,key layout,language,alternate keyboard,keyboard switching,ctrl key,caps lock,esperanto,circumflex,tilde,cedilla,diacritics,accents,function keys,kill x server,LED keyboard,compose key,hardware,type,typing,shift,meta,alt,alt gr,fn,space bar,spacebar,qwerty,qwertz,azerty,dvorak,bàn phím,lặp bàn phím,âm lượng bấm,thiết bị nhập,lặp lại,âm lượng,numLock,bàn phím số,kiểu bàn phím,mẫu mã bàn phím,bố cục bàn phím,bố cục phím,ngôn ngữ,bàn phím thay thế,chuyển bàn phím,phím ctrl,caps lock,tiếng quốc tế,dấu mũ,dấu ngã,dấu móc dưới,dấu phụ,phím chức năng,diệt máy chủ X,bàn phím LED,phím compose,phần cứng,gõ,shift,meta,alt gr,fn,phím cách",
    "X-KDE-Keywords[x-test]": "xxkeyboardxx,xxkeyboard repeatxx,xxclick volumexx,xxinput devicesxx,xxrepeatxx,xxvolumexx,xxnumlockxx,xxnumpadxx,xxnumber padxx,xxkeyboard typexx,xxkeyboard modelxx,xxkeyboard layoutxx,xxkey layoutxx,xxlanguagexx,xxalternate keyboardxx,xxkeyboard switchingxx,xxctrl keyxx,xxcaps lockxx,xxesperantoxx,xxcircumflexxx,xxtildexx,xxcedillaxx,xxdiacriticsxx,xxaccentsxx,xxfunction keysxx,xxkill x serverxx,xxLED keyboardxx,xxcompose keyxx,xxhardwarexx,xxtypexx,xxtypingxx,xxshiftxx,xxmetaxx,xxaltxx,xxalt grxx,xxfnxx,xxspace barxx,xxspacebarxx,xxqwertyxx,xxqwertzxx,xxazertyxx,xxdvorakxx",
    "X-KDE-Keywords[zh_TW]": "鍵盤,鍵盤重複,點擊音量,輸入裝置,音量,重複,numlock,數字鎖定,數字鍵鎖定,數字鍵,數字鍵盤,替代鍵盤,鍵盤切換,大寫鎖定,capslock,caps lock,fn,function,LED,compose 鍵,硬體,輸入,打字,空白鍵",
    "X-KDE-System-Settings-Parent-Category": "keyboard",
    "X-KDE-Weight": 10
}
